{
	"hello": "Hello!",
	"hi": "Hi there!",
	"greetings": "Greetings!",
	"salutations": "o7",
	"hey": "Hi!",
	"heya": "Hiya!",
	"thanks": "No problem!",
	"love you": "I cannot understand love, but I appreciate the sentiment.",
	"look what you did": ">.<*...",
	"say you're sorry": "Sorry!",
	"this better not happen again": "It won't. I promise!"
}